<?xml version="1.0" encoding="utf-8"?>
<!-- Generator: Adobe Illustrator 16.0.3, SVG Export Plug-In . SVG Version: 6.00 Build 0)  -->
<!DOCTYPE svg PUBLIC "-//W3C//DTD SVG 1.1//EN" "http://www.w3.org/Graphics/SVG/1.1/DTD/svg11.dtd">
<svg version="1.1" id="Layer_1" xmlns="http://www.w3.org/2000/svg" xmlns:xlink="http://www.w3.org/1999/xlink" x="0px" y="0px"
	 width="63.341px" height="59.576px" viewBox="0 0 63.341 59.576" enable-background="new 0 0 63.341 59.576" xml:space="preserve">
<g>
	<defs>
		<rect id="SVGID_1_" y="0" width="63.341" height="59.576"/>
	</defs>
	<clipPath id="SVGID_2_">
		<use xlink:href="#SVGID_1_"  overflow="visible"/>
	</clipPath>
	<path clip-path="url(#SVGID_2_)" fill="#ffffff" d="M14.126,21.321c-1.594,0-3.132-0.528-4.406-1.526
		c-1.51-1.181-2.471-2.88-2.702-4.784c-0.234-1.902,0.29-3.783,1.47-5.293c1.181-1.509,2.88-2.469,4.784-2.702
		c0.556-0.068,1.059,0.327,1.126,0.882c0.069,0.555-0.327,1.059-0.88,1.127c-1.368,0.166-2.587,0.856-3.437,1.94
		C9.233,12.05,8.857,13.4,9.024,14.767c0.167,1.368,0.857,2.586,1.942,3.436c1.085,0.848,2.435,1.223,3.801,1.056
		c1.367-0.166,2.587-0.855,3.435-1.94c0.849-1.084,1.225-2.434,1.058-3.802c-0.069-0.554,0.325-1.058,0.881-1.127
		c0.555-0.068,1.058,0.328,1.126,0.883c0.232,1.903-0.29,3.782-1.471,5.293c-1.183,1.51-2.882,2.469-4.784,2.7
		C14.716,21.302,14.419,21.321,14.126,21.321"/>
	<g clip-path="url(#SVGID_2_)">
		<path fill="#ffffff" d="M12.551,1.11h0.004H12.551z M14.166,2.022c-0.495,0-0.993,0.03-1.492,0.091
			C9.462,2.506,6.593,4.126,4.599,6.676c-1.995,2.548-2.877,5.721-2.485,8.934s2.013,6.081,4.562,8.075
			c2.551,1.996,5.724,2.876,8.934,2.484c3.214-0.392,6.081-2.011,8.076-4.561c1.994-2.549,2.877-5.722,2.485-8.936
			c-0.392-3.207-2.014-6.073-4.566-8.071C19.449,2.916,16.852,2.022,14.166,2.022 M14.11,28.284c-3.137,0-6.167-1.04-8.681-3.006
			c-2.973-2.327-4.865-5.674-5.323-9.423c-0.457-3.749,0.572-7.452,2.9-10.425c2.328-2.976,5.673-4.866,9.422-5.324
			c3.744-0.459,7.445,0.572,10.423,2.903c2.979,2.33,4.87,5.674,5.327,9.419c0.458,3.749-0.572,7.452-2.899,10.426
			c-2.326,2.976-5.674,4.866-9.423,5.324C15.272,28.249,14.689,28.284,14.11,28.284"/>
		<path fill="#ffffff" d="M14.142,49.238c-0.427,0-0.819-0.272-0.959-0.693L5.576,25.648C5.4,25.118,5.687,24.545,6.217,24.37
			c0.529-0.176,1.102,0.111,1.278,0.64l7.319,22.031l5.934-1.32l-1.876-19.238c-0.053-0.557,0.354-1.051,0.91-1.105
			c0.557-0.052,1.049,0.353,1.105,0.909l1.963,20.13c0.049,0.508-0.289,0.973-0.788,1.085l-7.7,1.712
			C14.288,49.228,14.215,49.238,14.142,49.238"/>
		<path fill="#ffffff" d="M46.014,25.269c-0.101,0-0.2-0.016-0.3-0.045c-7.399-2.292-13.396-2.769-20.699-1.651
			c-0.553,0.088-1.068-0.294-1.153-0.846c-0.084-0.552,0.295-1.068,0.846-1.152c7.093-1.089,13.239-0.696,20.294,1.326V4.756
			c-6.749,2.273-13.865,2.789-21.178,1.535c-0.55-0.094-0.92-0.616-0.827-1.168c0.094-0.55,0.617-0.92,1.168-0.824
			c7.451,1.277,14.683,0.631,21.494-1.923c0.309-0.116,0.658-0.073,0.93,0.116c0.274,0.189,0.437,0.499,0.437,0.831v20.935
			c0,0.321-0.153,0.623-0.411,0.814C46.438,25.201,46.227,25.269,46.014,25.269"/>
		<path fill="#ffffff" d="M40.081,23.5c-0.559,0-1.011-0.453-1.011-1.011V6.022c0-0.559,0.452-1.012,1.011-1.012
			c0.561,0,1.013,0.453,1.013,1.012v16.467C41.094,23.047,40.642,23.5,40.081,23.5"/>
		<path fill="#ffffff" d="M12.324,59.576c-0.321,0-0.636-0.151-0.832-0.436c-0.318-0.459-0.204-1.089,0.255-1.408
			c3.346-2.316,5.343-6.128,5.343-10.19c0-0.56,0.453-1.012,1.011-1.012c0.559,0,1.012,0.452,1.012,1.012
			c0,4.727-2.323,9.158-6.214,11.854C12.722,59.517,12.521,59.576,12.324,59.576"/>
		<path fill="#ffffff" d="M59.699,12.151c-1.229,0-2.472-0.582-3.698-1.735c-0.918-0.863-1.767-1.257-2.523-1.174
			c-0.965,0.106-1.572,0.988-1.578,0.997c-0.311,0.46-0.938,0.587-1.399,0.278c-0.462-0.306-0.594-0.926-0.29-1.39
			c0.045-0.069,1.104-1.663,3.012-1.891c1.381-0.167,2.783,0.409,4.165,1.706c0.917,0.862,1.767,1.255,2.521,1.175
			c0.967-0.108,1.574-0.988,1.58-0.997c0.312-0.459,0.938-0.585,1.4-0.28c0.461,0.309,0.592,0.927,0.289,1.392
			c-0.044,0.067-1.104,1.663-3.012,1.891C60.01,12.143,59.854,12.151,59.699,12.151"/>
		<path fill="#ffffff" d="M59.699,18.53c-1.229,0-2.472-0.582-3.698-1.735c-0.918-0.863-1.767-1.256-2.523-1.174
			c-0.965,0.106-1.572,0.988-1.578,0.997c-0.311,0.46-0.938,0.586-1.399,0.278c-0.462-0.306-0.594-0.926-0.29-1.39
			c0.045-0.069,1.104-1.663,3.012-1.891c1.381-0.169,2.783,0.408,4.165,1.706c0.917,0.862,1.767,1.255,2.521,1.175
			c0.967-0.108,1.574-0.988,1.58-0.997c0.312-0.459,0.938-0.586,1.4-0.28c0.461,0.309,0.592,0.927,0.289,1.392
			c-0.044,0.067-1.104,1.663-3.012,1.891C60.01,18.521,59.854,18.53,59.699,18.53"/>
	</g>
</g>
</svg>
